{
    "Set1" : 
        {
            "Name": "Diego RugerioJSON",
            "Email" : "diego.rugerio@mail.com",
            "Password" : "12345",
            "Gender" : "Male",
            "Day" : "03",
            "Month" : "01",
            "Year" : "1997"
        },
    "Set2" :  
        {
            "Name": "John Doe",
            "Email" : "john.doe@mail.com",
            "Password" : "15678",
            "Gender" : "Male",
            "Day" : "05",
            "Month" : "06",
            "Year" : "1986"
        },

    "Set3":  
        {
            "Name": "Mary Sue",
            "Email" : "mary.sue@mail.com",
            "Password" : "91011",
            "Gender" : "Female",
            "Day" : "07",
            "Month" : "12",
            "Year" : "2002"
        }
}